settle,maturity,rfr,basis,assetPrice1,assetPrice2,vols1,vols2,divs1,divs2,strike,corrs,optSpec,maxmin
Jan-05-1998,Jan-05-1999,1.0,1,3.8902,18.4174,0.5537886942377522,0.26016974535441173,0.0,0.0,16.575660000000003,0.7879734189263257,put,1.0
Jan-06-1998,Jan-05-1999,1.0,1,4.60502,18.3063,0.5537886942377522,0.26016974535441173,0.0,0.0,16.47567,0.7879734189263257,put,1.0
Jan-07-1998,Jan-05-1999,1.0,1,4.24032,18.4532,0.5537886942377522,0.26016974535441173,0.0,0.0,16.607879999999998,0.7879734189263257,put,1.0
Jan-08-1998,Jan-05-1999,1.0,1,4.39107,18.3566,0.5537886942377522,0.26016974535441173,0.0,0.0,16.52094,0.7879734189263257,put,1.0
Jan-09-1998,Jan-05-1999,1.0,1,4.43726,18.1356,0.5537886942377522,0.26016974535441173,0.0,0.0,16.32204,0.7879734189263257,put,1.0
Jan-12-1998,Jan-05-1999,1.0,1,4.46886,18.4201,0.5537886942377522,0.26016974535441173,0.0,0.0,16.578090000000003,0.7879734189263257,put,1.0
Jan-13-1998,Jan-05-1999,1.0,1,4.76306,18.6107,0.5537886942377522,0.26016974535441173,0.0,0.0,16.749630000000003,0.7879734189263257,put,1.0
Jan-14-1998,Jan-05-1999,1.0,1,4.78738,18.7072,0.5537886942377522,0.26016974535441173,0.0,0.0,16.83648,0.7879734189263257,put,1.0
Jan-15-1998,Jan-05-1999,1.0,1,4.66581,18.8012,0.5537886942377522,0.26016974535441173,0.0,0.0,16.921080000000003,0.7879734189263257,put,1.0
Jan-16-1998,Jan-05-1999,1.0,1,4.55883,18.8165,0.5537886942377522,0.26016974535441173,0.0,0.0,16.93485,0.7879734189263257,put,1.0
Jan-20-1998,Jan-05-1999,1.0,1,4.61962,19.1976,0.5537886942377522,0.26016974535441173,0.0,0.0,17.27784,0.7879734189263257,put,1.0
Jan-21-1998,Jan-05-1999,1.0,1,4.59044,19.0401,0.5537886942377522,0.26016974535441173,0.0,0.0,17.13609,0.7879734189263257,put,1.0
Jan-22-1998,Jan-05-1999,1.0,1,4.69499,19.5482,0.5537886942377522,0.26016974535441173,0.0,0.0,17.593380000000003,0.7879734189263257,put,1.0
Jan-23-1998,Jan-05-1999,1.0,1,4.74118,19.2154,0.5537886942377522,0.26016974535441173,0.0,0.0,17.29386,0.7879734189263257,put,1.0
Jan-26-1998,Jan-05-1999,1.0,1,4.71201,19.2611,0.5537886942377522,0.26016974535441173,0.0,0.0,17.33499,0.7879734189263257,put,1.0
Jan-27-1998,Jan-05-1999,1.0,1,4.6804,19.7692,0.5537886942377522,0.26016974535441173,0.0,0.0,17.79228,0.7879734189263257,put,1.0
Jan-28-1998,Jan-05-1999,1.0,1,4.6804,19.5634,0.5537886942377522,0.26016974535441173,0.0,0.0,17.60706,0.7879734189263257,put,1.0
Jan-29-1998,Jan-05-1999,1.0,1,4.51263,19.8658,0.5537886942377522,0.26016974535441173,0.0,0.0,17.87922,0.7879734189263257,put,1.0
Jan-30-1998,Jan-05-1999,1.0,1,4.46886,19.754,0.5537886942377522,0.26016974535441173,0.0,0.0,17.7786,0.7879734189263257,put,1.0
Feb-02-1998,Jan-05-1999,1.0,1,4.28652,19.9445,0.5537886942377522,0.26016974535441173,0.0,0.0,17.95005,0.7879734189263257,put,1.0
Feb-03-1998,Jan-05-1999,1.0,1,4.45185,20.0081,0.5537886942377522,0.26016974535441173,0.0,0.0,18.00729,0.7879734189263257,put,1.0
Feb-04-1998,Jan-05-1999,1.0,1,4.45185,19.8963,0.5537886942377522,0.26016974535441173,0.0,0.0,17.906670000000002,0.7879734189263257,put,1.0
Feb-05-1998,Jan-05-1999,1.0,1,4.46886,19.4847,0.5537886942377522,0.26016974535441173,0.0,0.0,17.53623,0.7879734189263257,put,1.0
Feb-06-1998,Jan-05-1999,1.0,1,4.48346,19.6752,0.5537886942377522,0.26016974535441173,0.0,0.0,17.70768,0.7879734189263257,put,1.0
Feb-09-1998,Jan-05-1999,1.0,1,4.6804,19.6117,0.5537886942377522,0.26016974535441173,0.0,0.0,17.65053,0.7879734189263257,put,1.0
Feb-10-1998,Jan-05-1999,1.0,1,4.71201,19.627,0.5537886942377522,0.26016974535441173,0.0,0.0,17.6643,0.7879734189263257,put,1.0
Feb-11-1998,Jan-05-1999,1.0,1,4.6342,19.4517,0.5537886942377522,0.26016974535441173,0.0,0.0,17.506529999999998,0.7879734189263257,put,1.0
Feb-12-1998,Jan-05-1999,1.0,1,4.69499,19.4364,0.5537886942377522,0.26016974535441173,0.0,0.0,17.49276,0.7879734189263257,put,1.0
Feb-13-1998,Jan-05-1999,1.0,1,4.75577,19.4059,0.5537886942377522,0.26016974535441173,0.0,0.0,17.46531,0.7879734189263257,put,1.0
Feb-17-1998,Jan-05-1999,1.0,1,4.77279,19.5152,0.5537886942377522,0.26016974535441173,0.0,0.0,17.56368,0.7879734189263257,put,1.0
Feb-18-1998,Jan-05-1999,1.0,1,4.99161,19.6752,0.5537886942377522,0.26016974535441173,0.0,0.0,17.70768,0.7879734189263257,put,1.0
Feb-19-1998,Jan-05-1999,1.0,1,4.98432,19.5482,0.5537886942377522,0.26016974535441173,0.0,0.0,17.593380000000003,0.7879734189263257,put,1.0
Feb-20-1998,Jan-05-1999,1.0,1,4.84816,19.5634,0.5537886942377522,0.26016974535441173,0.0,0.0,17.60706,0.7879734189263257,put,1.0
Feb-23-1998,Jan-05-1999,1.0,1,5.16668,19.4212,0.5537886942377522,0.26016974535441173,0.0,0.0,17.47908,0.7879734189263257,put,1.0
Feb-24-1998,Jan-05-1999,1.0,1,5.16668,19.0883,0.5537886942377522,0.26016974535441173,0.0,0.0,17.179470000000002,0.7879734189263257,put,1.0
Feb-25-1998,Jan-05-1999,1.0,1,5.42439,19.4059,0.5537886942377522,0.26016974535441173,0.0,0.0,17.46531,0.7879734189263257,put,1.0
Feb-26-1998,Jan-05-1999,1.0,1,5.69914,19.3576,0.5537886942377522,0.26016974535441173,0.0,0.0,17.421840000000003,0.7879734189263257,put,1.0
Feb-27-1998,Jan-05-1999,1.0,1,5.75993,19.1518,0.5537886942377522,0.26016974535441173,0.0,0.0,17.236620000000002,0.7879734189263257,put,1.0
Mar-02-1998,Jan-05-1999,1.0,1,5.5022,19.5482,0.5537886942377522,0.26016974535441173,0.0,0.0,17.593380000000003,0.7879734189263257,put,1.0
Mar-03-1998,Jan-05-1999,1.0,1,5.63836,19.4364,0.5537886942377522,0.26016974535441173,0.0,0.0,17.49276,0.7879734189263257,put,1.0
Mar-04-1998,Jan-05-1999,1.0,1,5.95687,19.2789,0.5537886942377522,0.26016974535441173,0.0,0.0,17.351010000000002,0.7879734189263257,put,1.0
Mar-05-1998,Jan-05-1999,1.0,1,5.84988,19.1036,0.5537886942377522,0.26016974535441173,0.0,0.0,17.19324,0.7879734189263257,put,1.0
Mar-06-1998,Jan-05-1999,1.0,1,5.92769,19.7057,0.5537886942377522,0.26016974535441173,0.0,0.0,17.73513,0.7879734189263257,put,1.0
Mar-09-1998,Jan-05-1999,1.0,1,5.5022,19.7388,0.5537886942377522,0.26016974535441173,0.0,0.0,17.76492,0.7879734189263257,put,1.0
Mar-10-1998,Jan-05-1999,1.0,1,5.8815,19.627,0.5537886942377522,0.26016974535441173,0.0,0.0,17.6643,0.7879734189263257,put,1.0
Mar-11-1998,Jan-05-1999,1.0,1,6.35318,19.9928,0.5537886942377522,0.26016974535441173,0.0,0.0,17.99352,0.7879734189263257,put,1.0
Mar-12-1998,Jan-05-1999,1.0,1,6.51852,20.1681,0.5537886942377522,0.26016974535441173,0.0,0.0,18.15129,0.7879734189263257,put,1.0
Mar-13-1998,Jan-05-1999,1.0,1,6.59632,20.2316,0.5537886942377522,0.26016974535441173,0.0,0.0,18.20844,0.7879734189263257,put,1.0
Mar-16-1998,Jan-05-1999,1.0,1,6.45773,20.595,0.5537886942377522,0.26016974535441173,0.0,0.0,18.5355,0.7879734189263257,put,1.0
Mar-17-1998,Jan-05-1999,1.0,1,6.41397,20.3409,0.5537886942377522,0.26016974535441173,0.0,0.0,18.306810000000002,0.7879734189263257,put,1.0
Mar-18-1998,Jan-05-1999,1.0,1,6.53554,20.7398,0.5537886942377522,0.26016974535441173,0.0,0.0,18.66582,0.7879734189263257,put,1.0
Mar-19-1998,Jan-05-1999,1.0,1,6.48934,21.2149,0.5537886942377522,0.26016974535441173,0.0,0.0,19.093410000000002,0.7879734189263257,put,1.0
Mar-20-1998,Jan-05-1999,1.0,1,6.41397,22.3887,0.5537886942377522,0.26016974535441173,0.0,0.0,20.14983,0.7879734189263257,put,1.0
Mar-23-1998,Jan-05-1999,1.0,1,6.33616,22.8359,0.5537886942377522,0.26016974535441173,0.0,0.0,20.55231,0.7879734189263257,put,1.0
Mar-24-1998,Jan-05-1999,1.0,1,6.79327,23.3135,0.5537886942377522,0.26016974535441173,0.0,0.0,20.98215,0.7879734189263257,put,1.0
Mar-25-1998,Jan-05-1999,1.0,1,6.61091,22.6784,0.5537886942377522,0.26016974535441173,0.0,0.0,20.41056,0.7879734189263257,put,1.0
Mar-26-1998,Jan-05-1999,1.0,1,6.47475,22.1042,0.5537886942377522,0.26016974535441173,0.0,0.0,19.89378,0.7879734189263257,put,1.0
Mar-27-1998,Jan-05-1999,1.0,1,6.5793,21.9771,0.5537886942377522,0.26016974535441173,0.0,0.0,19.77939,0.7879734189263257,put,1.0
Mar-30-1998,Jan-05-1999,1.0,1,6.6717,21.9466,0.5537886942377522,0.26016974535441173,0.0,0.0,19.75194,0.7879734189263257,put,1.0
Mar-31-1998,Jan-05-1999,1.0,1,6.70087,22.1042,0.5537886942377522,0.26016974535441173,0.0,0.0,19.89378,0.7879734189263257,put,1.0
Apr-01-1998,Jan-05-1999,1.0,1,6.68628,21.8196,0.5537886942377522,0.26016974535441173,0.0,0.0,19.63764,0.7879734189263257,put,1.0
Apr-02-1998,Jan-05-1999,1.0,1,6.62549,22.3582,0.5537886942377522,0.26016974535441173,0.0,0.0,20.12238,0.7879734189263257,put,1.0
Apr-03-1998,Jan-05-1999,1.0,1,6.5793,22.4243,0.5537886942377522,0.26016974535441173,0.0,0.0,20.18187,0.7879734189263257,put,1.0
Apr-06-1998,Jan-05-1999,1.0,1,6.38236,22.4243,0.5537886942377522,0.26016974535441173,0.0,0.0,20.18187,0.7879734189263257,put,1.0
Apr-07-1998,Jan-05-1999,1.0,1,6.23161,21.9966,0.5537886942377522,0.26016974535441173,0.0,0.0,19.796940000000003,0.7879734189263257,put,1.0
Apr-08-1998,Jan-05-1999,1.0,1,6.07843,21.1026,0.5537886942377522,0.26016974535441173,0.0,0.0,18.99234,0.7879734189263257,put,1.0
Apr-09-1998,Jan-05-1999,1.0,1,6.23161,21.169,0.5537886942377522,0.26016974535441173,0.0,0.0,19.0521,0.7879734189263257,put,1.0
Apr-13-1998,Jan-05-1999,1.0,1,6.42855,20.4334,0.5537886942377522,0.26016974535441173,0.0,0.0,18.39006,0.7879734189263257,put,1.0
Apr-14-1998,Jan-05-1999,1.0,1,6.55012,20.5611,0.5537886942377522,0.26016974535441173,0.0,0.0,18.50499,0.7879734189263257,put,1.0
Apr-15-1998,Jan-05-1999,1.0,1,6.6571,20.3721,0.5537886942377522,0.26016974535441173,0.0,0.0,18.33489,0.7879734189263257,put,1.0
Apr-16-1998,Jan-05-1999,1.0,1,6.97561,20.4998,0.5537886942377522,0.26016974535441173,0.0,0.0,18.449820000000003,0.7879734189263257,put,1.0
Apr-17-1998,Jan-05-1999,1.0,1,6.77867,21.2303,0.5537886942377522,0.26016974535441173,0.0,0.0,19.10727,0.7879734189263257,put,1.0
Apr-20-1998,Jan-05-1999,1.0,1,7.05098,20.8472,0.5537886942377522,0.26016974535441173,0.0,0.0,18.76248,0.7879734189263257,put,1.0
Apr-21-1998,Jan-05-1999,1.0,1,7.02181,20.9442,0.5537886942377522,0.26016974535441173,0.0,0.0,18.84978,0.7879734189263257,put,1.0
Apr-22-1998,Jan-05-1999,1.0,1,6.73248,21.4857,0.5537886942377522,0.26016974535441173,0.0,0.0,19.337130000000002,0.7879734189263257,put,1.0
Apr-23-1998,Jan-05-1999,1.0,1,6.71789,21.169,0.5537886942377522,0.26016974535441173,0.0,0.0,19.0521,0.7879734189263257,put,1.0
Apr-24-1998,Jan-05-1999,1.0,1,6.77867,20.8165,0.5537886942377522,0.26016974535441173,0.0,0.0,18.73485,0.7879734189263257,put,1.0
Apr-27-1998,Jan-05-1999,1.0,1,6.74707,20.3721,0.5537886942377522,0.26016974535441173,0.0,0.0,18.33489,0.7879734189263257,put,1.0
Apr-28-1998,Jan-05-1999,1.0,1,6.55012,20.4334,0.5537886942377522,0.26016974535441173,0.0,0.0,18.39006,0.7879734189263257,put,1.0
Apr-29-1998,Jan-05-1999,1.0,1,6.5793,20.5611,0.5537886942377522,0.26016974535441173,0.0,0.0,18.50499,0.7879734189263257,put,1.0
Apr-30-1998,Jan-05-1999,1.0,1,6.64009,21.169,0.5537886942377522,0.26016974535441173,0.0,0.0,19.0521,0.7879734189263257,put,1.0
May-01-1998,Jan-05-1999,1.0,1,6.80785,21.4244,0.5537886942377522,0.26016974535441173,0.0,0.0,19.281959999999998,0.7879734189263257,put,1.0
May-04-1998,Jan-05-1999,1.0,1,7.05098,22.0323,0.5537886942377522,0.26016974535441173,0.0,0.0,19.82907,0.7879734189263257,put,1.0
May-05-1998,Jan-05-1999,1.0,1,7.21876,21.7769,0.5537886942377522,0.26016974535441173,0.0,0.0,19.599210000000003,0.7879734189263257,put,1.0
May-06-1998,Jan-05-1999,1.0,1,7.3695,21.8076,0.5537886942377522,0.26016974535441173,0.0,0.0,19.62684,0.7879734189263257,put,1.0
