2.579e-05,0.03095
2.5983e-05,0.028575
2.6224e-05,0.027297
2.7295e-05,0.028966
2.8854e-05,0.03071
2.9157e-05,0.027477
2.9335e-05,0.026071
3.0151e-05,0.018552
3.0464e-05,0.015445
3.1315e-05,0.013604
3.1872e-05,0.01279
3.1597e-05,0.010144
3.2385e-05,0.010824
3.3123e-05,0.010457
3.6688e-05,0.011781
3.6843e-05,0.011223
3.7343e-05,0.010144
3.8726e-05,0.010752
4.0179e-05,0.0074949
4.1358e-05,0.010489
4.2229e-05,0.0085195
4.1716e-05,0.0064922
4.1801e-05,0.0058478
4.4392e-05,0.0066936
4.7085e-05,0.0086867
4.8465e-05,0.0083691
4.9604e-05,0.0079257
4.9776e-05,0.0076615
5.4445e-05,0.0089921
5.6837e-05,0.0078967
5.8096e-05,0.010085
5.9383e-05,0.010611
6.1046e-05,0.014284
6.3288e-05,0.014568
6.4891e-05,0.014559
6.4689e-05,0.013067
6.7169e-05,0.01329
6.8338e-05,0.015811
7.2781e-05,0.017247
7.5343e-05,0.029296
7.9036e-05,0.031759
7.9519e-05,0.035654
8.9034e-05,0.044621
9.1255e-05,0.044239
9.2449e-05,0.042433
9.2522e-05,0.041284
9.5679e-05,0.047635
0.00010079,0.042499
0.00010334,0.050174
0.00010642,0.048472
0.00010533,0.038918
0.00010809,0.030926
0.0001109,0.035807
0.00011469,0.031218
0.00011748,0.040122
0.00011754,0.038367
0.00012367,0.058514
0.0001299,0.058937
0.00013121,0.052277
0.00013328,0.051318
0.00013409,0.045318
0.00013549,0.045468
0.00014336,0.033933
0.00014344,0.029356
0.00014665,0.042445
0.00014942,0.03673
0.000152,0.029007
0.00016106,0.026682
0.00016512,0.022099
0.00016731,0.025625
0.00017059,0.019811
0.00017305,0.022885
0.0001853,0.022939
0.00019524,0.030233
0.00019779,0.027033
0.00020029,0.023917
0.00020405,0.028855
0.0002184,0.030109
0.00022335,0.030217
0.00022685,0.023599
0.0002319,0.022015
0.00023571,0.018538
0.00025743,0.026097
0.00027218,0.0385
0.00027896,0.037085
0.0002841,0.040491
0.00030569,0.04035
0.0003071,0.035158
0.00030382,0.033343
0.00031288,0.035773
0.00032411,0.025758
0.0003441,0.03193
0.00035722,0.031961
0.00036037,0.037187
0.00037893,0.047278
0.00039204,0.048197
0.00040348,0.047429
0.0004178,0.045717
0.0004106,0.025735
0.00041604,0.042526
0.00042348,0.043351
0.00045628,0.055089
0.00045052,0.048325
0.00047059,0.052793
0.00047899,0.040203
0.00049799,0.043701
0.00052966,0.053784
0.00053873,0.052003
0.00054268,0.04712
0.00055426,0.043832
0.00056587,0.04809
0.00059657,0.041585
0.00060567,0.027142
0.0006296,0.036559
0.00064451,0.041098
0.00065053,0.041968
0.00069755,0.042847
0.00071085,0.037436
0.00071451,0.041877
0.00072761,0.04701
0.00068167,0.019225
0.00072913,0.014785
0.00075098,0.0090649
0.00075281,0.0090419
0.00074984,0.0024942
0.00075099,0.0023591
0.00081079,0.0030316
0.00080845,0.0019237
0.00082433,0.0020418
0.00084275,0.0017338
