53.08,2.7667
52.887,3.3688
53.197,3.1787
52.356,3.1748
52.607,2.4125
51.37,2.5776
51.403,2.4546
49.979,2.5706
51.188,2.4931
52.475,2.0683
53.291,1.8784
54.052,1.7621
48.857,2.7267
49.05,2.6492
50.677,2.2735
48.496,2.4643
48.475,2.4311
49.569,2.1207
48.541,2.0455
47.539,2.0408
47.248,2.3188
45.665,2.554
44.553,3.1283
44.639,3.2344
43.367,3.468
44.679,3.0685
47.172,2.0822
45.983,2.0835
45.571,1.8471
44.888,1.9689
45.67,1.7906
45.135,1.7846
46.495,1.4102
46.24,1.3667
45.119,1.4456
45.173,1.3906
44.024,1.4373
43.405,1.1787
43.121,1.167
42.676,1.3013
43.802,1.3478
45.74,1.2272
45.511,1.2861
46.221,1.064
46.171,1.3999
46.262,1.5425
45.231,1.5877
45.687,1.3513
45.492,1.2627
44.546,1.5497
44.136,1.6427
41.949,1.7895
41.324,1.9194
40.997,1.7719
42.044,1.285
42.256,1.2556
42.452,1.2058
43.468,1.0934
43.643,0.8767
43.185,0.86115
43.038,0.80587
44.322,0.72445
44.172,0.74851
44.728,0.69814
44.365,0.78492
44.678,0.769
43.611,0.86754
42.894,0.91493
42.493,0.84751
41.988,1.218
40.201,1.8586
38.931,2.3299
39.431,1.9752
39.884,1.4682
45.229,0.64675
46.493,0.47241
48.491,0.25948
48.872,0.25057
47.224,0.46253
47.015,0.65634
47.779,0.46092
48.059,0.5278
48.089,0.52092
48.033,0.41554
47.267,0.34555
