settle,maturity,rfr,basis,assetPrice1,assetPrice2,vols1,vols2,divs1,divs2,strike,corrs,optSpec,maxmin
May-06-2003,May-06-2004,1.0,1,19.741,12.9355,0.27855433485410197,0.3502645398357645,0.0,0.0,21.7151,0.553637658636689,call,1.0
May-07-2003,May-06-2004,1.0,1,19.5012,12.9264,0.27855433485410197,0.3502645398357645,0.0,0.0,21.451320000000003,0.553637658636689,call,1.0
May-08-2003,May-06-2004,1.0,1,19.2988,12.8807,0.27855433485410197,0.3502645398357645,0.0,0.0,21.22868,0.553637658636689,call,1.0
May-09-2003,May-06-2004,1.0,1,19.696,13.0997,0.27855433485410197,0.3502645398357645,0.0,0.0,21.665600000000005,0.553637658636689,call,1.0
May-12-2003,May-06-2004,1.0,1,19.6286,13.0176,0.27855433485410197,0.3502645398357645,0.0,0.0,21.59146,0.553637658636689,call,1.0
May-13-2003,May-06-2004,1.0,1,19.4487,13.1088,0.27855433485410197,0.3502645398357645,0.0,0.0,21.39357,0.553637658636689,call,1.0
May-14-2003,May-06-2004,1.0,1,19.1864,13.0267,0.27855433485410197,0.3502645398357645,0.0,0.0,21.10504,0.553637658636689,call,1.0
May-15-2003,May-06-2004,1.0,1,19.3363,13.7839,0.27855433485410197,0.3502645398357645,0.0,0.0,21.269930000000002,0.553637658636689,call,1.0
May-16-2003,May-06-2004,1.0,1,19.1564,13.9937,0.27855433485410197,0.3502645398357645,0.0,0.0,21.072040000000005,0.553637658636689,call,1.0
May-19-2003,May-06-2004,1.0,1,18.5643,13.8012,0.27855433485410197,0.3502645398357645,0.0,0.0,20.420730000000002,0.553637658636689,call,1.0
May-20-2003,May-06-2004,1.0,1,18.5269,13.9019,0.27855433485410197,0.3502645398357645,0.0,0.0,20.379590000000004,0.553637658636689,call,1.0
May-21-2003,May-06-2004,1.0,1,18.0097,13.8836,0.27855433485410197,0.3502645398357645,0.0,0.0,19.810670000000002,0.553637658636689,call,1.0
May-22-2003,May-06-2004,1.0,1,18.0997,13.8744,0.27855433485410197,0.3502645398357645,0.0,0.0,19.90967,0.553637658636689,call,1.0
May-23-2003,May-06-2004,1.0,1,18.1521,14.0025,0.27855433485410197,0.3502645398357645,0.0,0.0,19.96731,0.553637658636689,call,1.0
May-27-2003,May-06-2004,1.0,1,18.5868,14.268,0.27855433485410197,0.3502645398357645,0.0,0.0,20.445480000000003,0.553637658636689,call,1.0
May-28-2003,May-06-2004,1.0,1,18.302,14.1307,0.27855433485410197,0.3502645398357645,0.0,0.0,20.1322,0.553637658636689,call,1.0
May-29-2003,May-06-2004,1.0,1,18.1896,14.2313,0.27855433485410197,0.3502645398357645,0.0,0.0,20.00856,0.553637658636689,call,1.0
May-30-2003,May-06-2004,1.0,1,18.4969,14.4235,0.27855433485410197,0.3502645398357645,0.0,0.0,20.346590000000003,0.553637658636689,call,1.0
Jun-02-2003,May-06-2004,1.0,1,18.4519,15.0642,0.27855433485410197,0.3502645398357645,0.0,0.0,20.29709,0.553637658636689,call,1.0
Jun-03-2003,May-06-2004,1.0,1,18.6243,14.6523,0.27855433485410197,0.3502645398357645,0.0,0.0,20.486730000000005,0.553637658636689,call,1.0
Jun-04-2003,May-06-2004,1.0,1,18.6468,15.0642,0.27855433485410197,0.3502645398357645,0.0,0.0,20.51148,0.553637658636689,call,1.0
Jun-05-2003,May-06-2004,1.0,1,18.0622,15.0276,0.27855433485410197,0.3502645398357645,0.0,0.0,19.868420000000004,0.553637658636689,call,1.0
Jun-06-2003,May-06-2004,1.0,1,17.7474,14.9361,0.27855433485410197,0.3502645398357645,0.0,0.0,19.52214,0.553637658636689,call,1.0
Jun-09-2003,May-06-2004,1.0,1,17.7699,14.7988,0.27855433485410197,0.3502645398357645,0.0,0.0,19.54689,0.553637658636689,call,1.0
Jun-10-2003,May-06-2004,1.0,1,18.4819,15.0276,0.27855433485410197,0.3502645398357645,0.0,0.0,20.330090000000002,0.553637658636689,call,1.0
Jun-11-2003,May-06-2004,1.0,1,18.6543,15.2747,0.27855433485410197,0.3502645398357645,0.0,0.0,20.51973,0.553637658636689,call,1.0
Jun-12-2003,May-06-2004,1.0,1,18.7217,15.4577,0.27855433485410197,0.3502645398357645,0.0,0.0,20.59387,0.553637658636689,call,1.0
Jun-13-2003,May-06-2004,1.0,1,18.4219,15.2655,0.27855433485410197,0.3502645398357645,0.0,0.0,20.264090000000003,0.553637658636689,call,1.0
Jun-16-2003,May-06-2004,1.0,1,18.999,15.5858,0.27855433485410197,0.3502645398357645,0.0,0.0,20.8989,0.553637658636689,call,1.0
Jun-17-2003,May-06-2004,1.0,1,19.4487,16.2631,0.27855433485410197,0.3502645398357645,0.0,0.0,21.39357,0.553637658636689,call,1.0
Jun-18-2003,May-06-2004,1.0,1,19.4937,15.8787,0.27855433485410197,0.3502645398357645,0.0,0.0,21.443070000000002,0.553637658636689,call,1.0
Jun-19-2003,May-06-2004,1.0,1,19.5386,15.8513,0.27855433485410197,0.3502645398357645,0.0,0.0,21.49246,0.553637658636689,call,1.0
Jun-20-2003,May-06-2004,1.0,1,19.696,15.4669,0.27855433485410197,0.3502645398357645,0.0,0.0,21.665600000000005,0.553637658636689,call,1.0
Jun-23-2003,May-06-2004,1.0,1,19.2539,15.1191,0.27855433485410197,0.3502645398357645,0.0,0.0,21.17929,0.553637658636689,call,1.0
Jun-24-2003,May-06-2004,1.0,1,19.3588,15.2381,0.27855433485410197,0.3502645398357645,0.0,0.0,21.29468,0.553637658636689,call,1.0
Jun-25-2003,May-06-2004,1.0,1,18.9241,15.0733,0.27855433485410197,0.3502645398357645,0.0,0.0,20.81651,0.553637658636689,call,1.0
Jun-26-2003,May-06-2004,1.0,1,19.2688,15.3753,0.27855433485410197,0.3502645398357645,0.0,0.0,21.19568,0.553637658636689,call,1.0
Jun-27-2003,May-06-2004,1.0,1,19.2239,15.0459,0.27855433485410197,0.3502645398357645,0.0,0.0,21.14629,0.553637658636689,call,1.0
Jun-30-2003,May-06-2004,1.0,1,19.3063,15.0367,0.27855433485410197,0.3502645398357645,0.0,0.0,21.23693,0.553637658636689,call,1.0
Jul-01-2003,May-06-2004,1.0,1,19.5986,14.3412,0.27855433485410197,0.3502645398357645,0.0,0.0,21.558460000000004,0.553637658636689,call,1.0
Jul-02-2003,May-06-2004,1.0,1,20.1607,14.6798,0.27855433485410197,0.3502645398357645,0.0,0.0,22.17677,0.553637658636689,call,1.0
Jul-03-2003,May-06-2004,1.0,1,19.8909,14.268,0.27855433485410197,0.3502645398357645,0.0,0.0,21.87999,0.553637658636689,call,1.0
Jul-07-2003,May-06-2004,1.0,1,20.5954,14.5151,0.27855433485410197,0.3502645398357645,0.0,0.0,22.654940000000003,0.553637658636689,call,1.0
Jul-08-2003,May-06-2004,1.0,1,20.7003,14.6432,0.27855433485410197,0.3502645398357645,0.0,0.0,22.77033,0.553637658636689,call,1.0
Jul-09-2003,May-06-2004,1.0,1,20.5654,14.6432,0.27855433485410197,0.3502645398357645,0.0,0.0,22.621940000000002,0.553637658636689,call,1.0
Jul-10-2003,May-06-2004,1.0,1,20.1832,14.4144,0.27855433485410197,0.3502645398357645,0.0,0.0,22.201520000000002,0.553637658636689,call,1.0
Jul-11-2003,May-06-2004,1.0,1,20.468,14.3961,0.27855433485410197,0.3502645398357645,0.0,0.0,22.5148,0.553637658636689,call,1.0
Jul-14-2003,May-06-2004,1.0,1,20.3331,14.5883,0.27855433485410197,0.3502645398357645,0.0,0.0,22.366410000000005,0.553637658636689,call,1.0
Jul-15-2003,May-06-2004,1.0,1,20.4455,14.3869,0.27855433485410197,0.3502645398357645,0.0,0.0,22.49005,0.553637658636689,call,1.0
Jul-16-2003,May-06-2004,1.0,1,20.6479,14.6432,0.27855433485410197,0.3502645398357645,0.0,0.0,22.712690000000002,0.553637658636689,call,1.0
Jul-17-2003,May-06-2004,1.0,1,20.0408,14.5974,0.27855433485410197,0.3502645398357645,0.0,0.0,22.044880000000003,0.553637658636689,call,1.0
Jul-18-2003,May-06-2004,1.0,1,20.1682,15.1649,0.27855433485410197,0.3502645398357645,0.0,0.0,22.18502,0.553637658636689,call,1.0
Jul-21-2003,May-06-2004,1.0,1,19.5162,14.4235,0.27855433485410197,0.3502645398357645,0.0,0.0,21.467820000000003,0.553637658636689,call,1.0
Jul-22-2003,May-06-2004,1.0,1,19.7935,14.9361,0.27855433485410197,0.3502645398357645,0.0,0.0,21.772850000000002,0.553637658636689,call,1.0
Jul-23-2003,May-06-2004,1.0,1,19.8834,14.57,0.27855433485410197,0.3502645398357645,0.0,0.0,21.871740000000003,0.553637658636689,call,1.0
Jul-24-2003,May-06-2004,1.0,1,19.5087,14.3686,0.27855433485410197,0.3502645398357645,0.0,0.0,21.459570000000003,0.553637658636689,call,1.0
Jul-25-2003,May-06-2004,1.0,1,20.1307,14.1124,0.27855433485410197,0.3502645398357645,0.0,0.0,22.143770000000004,0.553637658636689,call,1.0
Jul-28-2003,May-06-2004,1.0,1,19.9434,14.03,0.27855433485410197,0.3502645398357645,0.0,0.0,21.93774,0.553637658636689,call,1.0
Jul-29-2003,May-06-2004,1.0,1,19.756,14.1307,0.27855433485410197,0.3502645398357645,0.0,0.0,21.7316,0.553637658636689,call,1.0
Jul-30-2003,May-06-2004,1.0,1,19.681,14.1307,0.27855433485410197,0.3502645398357645,0.0,0.0,21.649100000000004,0.553637658636689,call,1.0
Jul-31-2003,May-06-2004,1.0,1,19.801,14.4601,0.27855433485410197,0.3502645398357645,0.0,0.0,21.7811,0.553637658636689,call,1.0
Aug-01-2003,May-06-2004,1.0,1,19.6211,14.332,0.27855433485410197,0.3502645398357645,0.0,0.0,21.58321,0.553637658636689,call,1.0
Aug-04-2003,May-06-2004,1.0,1,19.5836,14.9177,0.27855433485410197,0.3502645398357645,0.0,0.0,21.541960000000003,0.553637658636689,call,1.0
Aug-05-2003,May-06-2004,1.0,1,19.2164,14.8903,0.27855433485410197,0.3502645398357645,0.0,0.0,21.13804,0.553637658636689,call,1.0
Aug-06-2003,May-06-2004,1.0,1,19.2688,14.2954,0.27855433485410197,0.3502645398357645,0.0,0.0,21.19568,0.553637658636689,call,1.0
Aug-07-2003,May-06-2004,1.0,1,19.2539,14.57,0.27855433485410197,0.3502645398357645,0.0,0.0,21.17929,0.553637658636689,call,1.0
Aug-08-2003,May-06-2004,1.0,1,19.2089,14.9818,0.27855433485410197,0.3502645398357645,0.0,0.0,21.12979,0.553637658636689,call,1.0
Aug-11-2003,May-06-2004,1.0,1,19.2014,15.2015,0.27855433485410197,0.3502645398357645,0.0,0.0,21.12154,0.553637658636689,call,1.0
Aug-12-2003,May-06-2004,1.0,1,19.3063,15.6591,0.27855433485410197,0.3502645398357645,0.0,0.0,21.23693,0.553637658636689,call,1.0
Aug-13-2003,May-06-2004,1.0,1,19.1864,15.3113,0.27855433485410197,0.3502645398357645,0.0,0.0,21.10504,0.553637658636689,call,1.0
Aug-14-2003,May-06-2004,1.0,1,19.1864,15.7963,0.27855433485410197,0.3502645398357645,0.0,0.0,21.10504,0.553637658636689,call,1.0
Aug-15-2003,May-06-2004,1.0,1,19.089,15.476,0.27855433485410197,0.3502645398357645,0.0,0.0,20.9979,0.553637658636689,call,1.0
Aug-18-2003,May-06-2004,1.0,1,19.2838,15.724,0.27855433485410197,0.3502645398357645,0.0,0.0,21.21218,0.553637658636689,call,1.0
Aug-19-2003,May-06-2004,1.0,1,19.9284,15.825,0.27855433485410197,0.3502645398357645,0.0,0.0,21.92124,0.553637658636689,call,1.0
Aug-20-2003,May-06-2004,1.0,1,19.801,15.9443,0.27855433485410197,0.3502645398357645,0.0,0.0,21.7811,0.553637658636689,call,1.0
Aug-21-2003,May-06-2004,1.0,1,19.6661,16.0728,0.27855433485410197,0.3502645398357645,0.0,0.0,21.632710000000003,0.553637658636689,call,1.0
Aug-22-2003,May-06-2004,1.0,1,19.6511,15.7424,0.27855433485410197,0.3502645398357645,0.0,0.0,21.616210000000002,0.553637658636689,call,1.0
Aug-25-2003,May-06-2004,1.0,1,19.8459,15.9168,0.27855433485410197,0.3502645398357645,0.0,0.0,21.83049,0.553637658636689,call,1.0
Aug-26-2003,May-06-2004,1.0,1,19.9059,15.9902,0.27855433485410197,0.3502645398357645,0.0,0.0,21.89649,0.553637658636689,call,1.0
Aug-27-2003,May-06-2004,1.0,1,19.8309,16.4033,0.27855433485410197,0.3502645398357645,0.0,0.0,21.81399,0.553637658636689,call,1.0
Aug-28-2003,May-06-2004,1.0,1,19.8834,16.6052,0.27855433485410197,0.3502645398357645,0.0,0.0,21.871740000000003,0.553637658636689,call,1.0
Aug-29-2003,May-06-2004,1.0,1,19.8234,16.8898,0.27855433485410197,0.3502645398357645,0.0,0.0,21.80574,0.553637658636689,call,1.0
Sep-02-2003,May-06-2004,1.0,1,20.4305,16.899,0.27855433485410197,0.3502645398357645,0.0,0.0,22.47355,0.553637658636689,call,1.0
Sep-03-2003,May-06-2004,1.0,1,21.1875,16.8622,0.27855433485410197,0.3502645398357645,0.0,0.0,23.306250000000002,0.553637658636689,call,1.0
Sep-04-2003,May-06-2004,1.0,1,21.2999,17.0642,0.27855433485410197,0.3502645398357645,0.0,0.0,23.429890000000004,0.553637658636689,call,1.0
Sep-05-2003,May-06-2004,1.0,1,21.2774,16.899,0.27855433485410197,0.3502645398357645,0.0,0.0,23.405140000000003,0.553637658636689,call,1.0
Sep-08-2003,May-06-2004,1.0,1,21.6072,17.2845,0.27855433485410197,0.3502645398357645,0.0,0.0,23.76792,0.553637658636689,call,1.0
Sep-09-2003,May-06-2004,1.0,1,21.2924,17.3028,0.27855433485410197,0.3502645398357645,0.0,0.0,23.421640000000004,0.553637658636689,call,1.0
Sep-10-2003,May-06-2004,1.0,1,20.6629,16.8622,0.27855433485410197,0.3502645398357645,0.0,0.0,22.729190000000003,0.553637658636689,call,1.0
Sep-11-2003,May-06-2004,1.0,1,20.8727,16.9449,0.27855433485410197,0.3502645398357645,0.0,0.0,22.95997,0.553637658636689,call,1.0
Sep-12-2003,May-06-2004,1.0,1,21.21,17.9179,0.27855433485410197,0.3502645398357645,0.0,0.0,23.331000000000003,0.553637658636689,call,1.0
Sep-15-2003,May-06-2004,1.0,1,21.2549,17.6241,0.27855433485410197,0.3502645398357645,0.0,0.0,23.380390000000002,0.553637658636689,call,1.0
Sep-16-2003,May-06-2004,1.0,1,21.6447,18.0096,0.27855433485410197,0.3502645398357645,0.0,0.0,23.80917,0.553637658636689,call,1.0
Sep-17-2003,May-06-2004,1.0,1,21.4198,17.5323,0.27855433485410197,0.3502645398357645,0.0,0.0,23.56178,0.553637658636689,call,1.0
Sep-18-2003,May-06-2004,1.0,1,22.0943,17.6884,0.27855433485410197,0.3502645398357645,0.0,0.0,24.30373,0.553637658636689,call,1.0
Sep-19-2003,May-06-2004,1.0,1,22.4241,17.9729,0.27855433485410197,0.3502645398357645,0.0,0.0,24.666510000000002,0.553637658636689,call,1.0
Sep-22-2003,May-06-2004,1.0,1,21.7871,17.5231,0.27855433485410197,0.3502645398357645,0.0,0.0,23.96581,0.553637658636689,call,1.0
Sep-23-2003,May-06-2004,1.0,1,22.1318,17.9362,0.27855433485410197,0.3502645398357645,0.0,0.0,24.34498,0.553637658636689,call,1.0
Sep-24-2003,May-06-2004,1.0,1,21.3374,18.3676,0.27855433485410197,0.3502645398357645,0.0,0.0,23.471140000000002,0.553637658636689,call,1.0
Sep-25-2003,May-06-2004,1.0,1,21.21,17.3028,0.27855433485410197,0.3502645398357645,0.0,0.0,23.331000000000003,0.553637658636689,call,1.0
Sep-26-2003,May-06-2004,1.0,1,21.18,17.2661,0.27855433485410197,0.3502645398357645,0.0,0.0,23.298000000000002,0.553637658636689,call,1.0
Sep-29-2003,May-06-2004,1.0,1,21.5472,17.2111,0.27855433485410197,0.3502645398357645,0.0,0.0,23.70192,0.553637658636689,call,1.0
Sep-30-2003,May-06-2004,1.0,1,20.8727,16.8898,0.27855433485410197,0.3502645398357645,0.0,0.0,22.95997,0.553637658636689,call,1.0
Oct-01-2003,May-06-2004,1.0,1,21.3898,17.2111,0.27855433485410197,0.3502645398357645,0.0,0.0,23.528780000000005,0.553637658636689,call,1.0
Oct-02-2003,May-06-2004,1.0,1,21.3599,17.7434,0.27855433485410197,0.3502645398357645,0.0,0.0,23.495890000000003,0.553637658636689,call,1.0
Oct-03-2003,May-06-2004,1.0,1,21.7871,18.0005,0.27855433485410197,0.3502645398357645,0.0,0.0,23.96581,0.553637658636689,call,1.0
Oct-06-2003,May-06-2004,1.0,1,21.8845,17.7618,0.27855433485410197,0.3502645398357645,0.0,0.0,24.072950000000002,0.553637658636689,call,1.0
Oct-07-2003,May-06-2004,1.0,1,21.8395,17.8169,0.27855433485410197,0.3502645398357645,0.0,0.0,24.023450000000004,0.553637658636689,call,1.0
Oct-08-2003,May-06-2004,1.0,1,21.5847,17.8077,0.27855433485410197,0.3502645398357645,0.0,0.0,23.743170000000003,0.553637658636689,call,1.0
Oct-09-2003,May-06-2004,1.0,1,21.6297,18.0188,0.27855433485410197,0.3502645398357645,0.0,0.0,23.79267,0.553637658636689,call,1.0
Oct-10-2003,May-06-2004,1.0,1,21.6671,17.8995,0.27855433485410197,0.3502645398357645,0.0,0.0,23.833810000000003,0.553637658636689,call,1.0
Oct-13-2003,May-06-2004,1.0,1,21.5772,18.184,0.27855433485410197,0.3502645398357645,0.0,0.0,23.734920000000002,0.553637658636689,call,1.0
Oct-14-2003,May-06-2004,1.0,1,21.4948,18.9551,0.27855433485410197,0.3502645398357645,0.0,0.0,23.644280000000002,0.553637658636689,call,1.0
Oct-15-2003,May-06-2004,1.0,1,21.9244,18.8174,0.27855433485410197,0.3502645398357645,0.0,0.0,24.11684,0.553637658636689,call,1.0
Oct-16-2003,May-06-2004,1.0,1,22.0223,18.7073,0.27855433485410197,0.3502645398357645,0.0,0.0,24.224530000000005,0.553637658636689,call,1.0
Oct-17-2003,May-06-2004,1.0,1,21.8113,18.4961,0.27855433485410197,0.3502645398357645,0.0,0.0,23.992430000000002,0.553637658636689,call,1.0
Oct-20-2003,May-06-2004,1.0,1,22.0977,18.8082,0.27855433485410197,0.3502645398357645,0.0,0.0,24.307470000000002,0.553637658636689,call,1.0
Oct-21-2003,May-06-2004,1.0,1,22.0977,19.102,0.27855433485410197,0.3502645398357645,0.0,0.0,24.307470000000002,0.553637658636689,call,1.0
Oct-22-2003,May-06-2004,1.0,1,21.7962,18.6247,0.27855433485410197,0.3502645398357645,0.0,0.0,23.975820000000002,0.553637658636689,call,1.0
Oct-23-2003,May-06-2004,1.0,1,21.7812,18.4135,0.27855433485410197,0.3502645398357645,0.0,0.0,23.95932,0.553637658636689,call,1.0
Oct-24-2003,May-06-2004,1.0,1,20.0251,18.386,0.27855433485410197,0.3502645398357645,0.0,0.0,22.02761,0.553637658636689,call,1.0
Oct-27-2003,May-06-2004,1.0,1,20.2437,19.1387,0.27855433485410197,0.3502645398357645,0.0,0.0,22.26807,0.553637658636689,call,1.0
Oct-28-2003,May-06-2004,1.0,1,20.4622,20.2494,0.27855433485410197,0.3502645398357645,0.0,0.0,22.50842,0.553637658636689,call,1.0
Oct-29-2003,May-06-2004,1.0,1,20.1306,19.9189,0.27855433485410197,0.3502645398357645,0.0,0.0,22.143660000000004,0.553637658636689,call,1.0
Oct-30-2003,May-06-2004,1.0,1,19.6784,21.6079,0.27855433485410197,0.3502645398357645,0.0,0.0,21.646240000000002,0.553637658636689,call,1.0
Oct-31-2003,May-06-2004,1.0,1,19.7086,21.7364,0.27855433485410197,0.3502645398357645,0.0,0.0,21.679460000000002,0.553637658636689,call,1.0
Nov-03-2003,May-06-2004,1.0,1,20.1155,21.8466,0.27855433485410197,0.3502645398357645,0.0,0.0,22.127050000000004,0.553637658636689,call,1.0
Nov-04-2003,May-06-2004,1.0,1,19.6859,22.1128,0.27855433485410197,0.3502645398357645,0.0,0.0,21.654490000000003,0.553637658636689,call,1.0
Nov-05-2003,May-06-2004,1.0,1,19.701,22.0485,0.27855433485410197,0.3502645398357645,0.0,0.0,21.671100000000003,0.553637658636689,call,1.0
Nov-06-2003,May-06-2004,1.0,1,19.7689,22.4157,0.27855433485410197,0.3502645398357645,0.0,0.0,21.74579,0.553637658636689,call,1.0
